{
  "id":"transponder-reminders",
  "name":"Transponder Reminders",
  "author":"Blothorn",
  "version":"0.1.0",
  "description":"Reminds you to turn on your transponder before jumping into systems.",
  "gameVersion":"0.9a",
  "modPlugin":"org.blothorn.transponderreminders.plugins.TransponderRemindersModPlugin",
  "jars": ["transponder-reminders.jar"]
}
